<svg xmlns="http://www.w3.org/2000/svg" width="85.733" height="85.733" viewBox="0 0 85.733 85.733">
  <path id="linkedin" d="M42.867,0A42.867,42.867,0,1,0,85.733,42.867,42.871,42.871,0,0,0,42.867,0ZM30.41,64.8H19.97V33.393H30.41ZM25.19,29.1h-.068a5.4,5.4,0,0,1-5.769-5.426c0-3.082,2.335-5.427,5.906-5.427S31.029,20.6,31.1,23.679c0,3.014-2.266,5.426-5.906,5.426ZM68.054,64.8H57.616V48c0-4.223-1.512-7.1-5.289-7.1a5.715,5.715,0,0,0-5.356,3.818,7.149,7.149,0,0,0-.343,2.548V64.8H36.188s.137-28.462,0-31.409H46.627v4.447a10.364,10.364,0,0,1,9.408-5.184c6.869,0,12.019,4.489,12.019,14.136Zm0,0" fill="#e0e0e0"/>
</svg>
